<svg width="24" height="25" viewBox="0 0 24 25" fill="none" xmlns="http://www.w3.org/2000/svg">
<path fill-rule="evenodd" clip-rule="evenodd" d="M13.525 16.6134C14.9147 16.6134 16.046 17.7445 16.046 19.1349V22.7108C16.046 23.0095 16.2838 23.249 16.5885 23.256H18.7886C20.5224 23.256 21.9318 21.854 21.9318 20.1311V9.98932C21.9237 9.39643 21.6432 8.83842 21.1618 8.46758L13.5515 2.35505C12.53 1.54012 11.1009 1.54012 10.0759 2.35737L2.51752 8.46525C2.01771 8.84772 1.73721 9.40573 1.73144 10.0091V20.1311C1.73144 21.854 3.14085 23.256 4.87461 23.256H7.09549C7.40831 23.256 7.66225 23.0061 7.66225 22.6992C7.66225 22.6317 7.67033 22.5643 7.68419 22.5004V19.1349C7.68419 17.7526 8.80848 16.6227 10.1879 16.6134H13.525ZM18.7886 25.0003H16.5677C15.2957 24.9701 14.3145 23.9645 14.3145 22.7113V19.1354C14.3145 18.7064 13.9602 18.3577 13.525 18.3577H10.1937C9.76772 18.36 9.41566 18.7099 9.41566 19.1354V22.6997C9.41566 22.7869 9.40411 22.8706 9.37987 22.9496C9.25521 24.1005 8.27867 25.0003 7.09551 25.0003H4.87463C2.18625 25.0003 0 22.8159 0 20.1317V10.0015C0.011543 8.84591 0.540214 7.78801 1.45327 7.09167L8.99664 0.994246C10.6577 -0.331027 12.9721 -0.331028 14.6296 0.991921L22.2273 7.09515C23.1196 7.77988 23.6482 8.83545 23.6632 9.97704V20.1317C23.6632 22.8159 21.477 25.0003 18.7886 25.0003Z" fill="#01B2FF"/>
</svg>
