<svg width="40" height="40" viewBox="0 0 40 40" fill="none" xmlns="http://www.w3.org/2000/svg">
<rect width="40" height="40" rx="8" fill="#FF7A00"/>
<path d="M16.9032 28.1545C15.465 28.156 14.0622 27.7077 12.8914 26.8725C11.7205 26.0373 10.84 24.8568 10.3733 23.4964C9.9065 22.136 9.87676 20.6637 10.2882 19.2856C10.6997 17.9074 11.5317 16.6924 12.6679 15.8106C13.13 14.8578 14.4116 11.8516 13.2991 10.3819C13.2651 10.3368 13.2481 10.2811 13.2513 10.2248C13.2545 10.1684 13.2776 10.115 13.3165 10.074C13.3555 10.0331 13.4076 10.0074 13.4638 10.0014C13.5199 9.99534 13.5764 10.0095 13.6231 10.0412C14.3191 10.5864 14.774 11.3825 14.8904 12.2589C14.885 12.1958 14.9049 12.133 14.9458 12.0846C14.9867 12.0361 15.0452 12.0059 15.1083 12.0005C15.1715 11.9951 15.2342 12.0151 15.2827 12.0559C15.3312 12.0968 15.3614 12.1553 15.3668 12.2184C15.3681 12.2319 15.3681 12.2455 15.3668 12.2589C15.5295 13.0242 15.4826 13.8192 15.231 14.56C16.186 14.3032 17.185 14.2544 18.1605 14.4169C19.136 14.5794 20.0652 14.9495 20.8853 15.5021C21.7054 16.0548 22.3973 16.777 22.9143 17.6201C23.4312 18.4632 23.7611 19.4074 23.8816 20.3889C24.0021 21.3705 23.9105 22.3665 23.613 23.3096C23.3154 24.2527 22.8188 25.1209 22.1568 25.8555C21.4947 26.5902 20.6827 27.1741 19.7755 27.5678C18.8683 27.9616 17.8872 28.1559 16.8984 28.1378L16.9032 28.1545ZM14.1853 11.48C14.3663 13.1999 13.4349 15.3247 13.0728 16.0702C13.0562 16.1041 13.0317 16.1335 13.0014 16.156C11.7184 17.1374 10.8517 18.5656 10.5735 20.1567C10.2953 21.7478 10.626 23.3853 11.4998 24.7438C12.3737 26.1023 13.7267 27.0822 15.2899 27.4889C16.8531 27.8955 18.5121 27.699 19.9372 26.9385C21.3622 26.178 22.4489 24.9092 22.9812 23.3842C23.5136 21.8592 23.4526 20.1897 22.8105 18.7075C22.1684 17.2254 20.992 16.0392 19.5154 15.3846C18.0387 14.73 16.3698 14.6551 14.8403 15.1746C14.7933 15.1903 14.7426 15.1909 14.6952 15.1764C14.6478 15.1619 14.6061 15.1329 14.5759 15.0936C14.5472 15.0533 14.5318 15.005 14.5318 14.9554C14.5318 14.9059 14.5472 14.8576 14.5759 14.8173C14.8004 14.4573 14.9359 14.049 14.9714 13.6262C14.8118 13.9573 14.6403 14.267 14.5235 14.4671C14.4925 14.5186 14.4432 14.5565 14.3854 14.5732C14.3276 14.5898 14.2656 14.584 14.2119 14.5569C14.1583 14.5297 14.1168 14.4833 14.096 14.4269C14.0751 14.3705 14.0764 14.3082 14.0995 14.2527C14.6164 13.0355 14.4759 12.116 14.1853 11.4848V11.48Z" fill="white"/>
<path d="M14.657 21.0651C14.5665 21.0656 14.4778 21.0391 14.4023 20.9892C14.3267 20.9392 14.2678 20.8679 14.2328 20.7844C14.1978 20.7009 14.1884 20.6089 14.2058 20.52C14.2231 20.4311 14.2665 20.3494 14.3304 20.2852C14.3942 20.221 14.4757 20.1772 14.5645 20.1594C14.6533 20.1415 14.7454 20.1504 14.8291 20.185C14.9128 20.2195 14.9844 20.2781 15.0347 20.3534C15.0851 20.4287 15.112 20.5172 15.112 20.6077C15.112 20.7286 15.0641 20.8446 14.9789 20.9303C14.8936 21.016 14.7779 21.0645 14.657 21.0651ZM14.657 20.5887C14.6517 20.5887 14.6466 20.5906 14.6426 20.5941C14.6387 20.5976 14.6362 20.6025 14.6356 20.6077C14.6356 20.6316 14.6761 20.6316 14.6761 20.6077C14.6756 20.6029 14.6734 20.5983 14.6699 20.5948C14.6664 20.5914 14.6619 20.5892 14.657 20.5887Z" fill="white"/>
<path d="M18.368 19.2594C18.2774 19.2599 18.1887 19.2335 18.1132 19.1835C18.0377 19.1335 17.9787 19.0623 17.9437 18.9788C17.9087 18.8952 17.8993 18.8032 17.9167 18.7143C17.9341 18.6254 17.9775 18.5437 18.0413 18.4795C18.1052 18.4153 18.1867 18.3715 18.2755 18.3537C18.3642 18.3358 18.4563 18.3448 18.54 18.3793C18.6237 18.4139 18.6953 18.4725 18.7457 18.5477C18.796 18.623 18.8229 18.7115 18.8229 18.8021C18.8229 18.923 18.7751 19.0389 18.6898 19.1246C18.6045 19.2103 18.4888 19.2588 18.368 19.2594ZM18.368 18.783C18.3653 18.7827 18.3625 18.7829 18.3599 18.7837C18.3573 18.7845 18.3549 18.7859 18.3529 18.7877C18.3509 18.7895 18.3493 18.7917 18.3481 18.7942C18.347 18.7967 18.3465 18.7994 18.3465 18.8021C18.3465 18.8235 18.387 18.8235 18.387 18.8021C18.387 18.797 18.385 18.7922 18.3814 18.7886C18.3778 18.785 18.373 18.783 18.368 18.783Z" fill="white"/>
<path d="M17.8728 24.6553C17.4699 24.6567 17.0688 24.6006 16.6818 24.4885C16.6519 24.479 16.6242 24.4637 16.6003 24.4434C16.5763 24.4232 16.5566 24.3984 16.5422 24.3705C16.5278 24.3427 16.5191 24.3122 16.5165 24.281C16.5138 24.2497 16.5174 24.2183 16.5269 24.1884C16.5365 24.1585 16.5518 24.1308 16.5721 24.1069C16.5923 24.0829 16.6171 24.0632 16.645 24.0488C16.6728 24.0344 16.7032 24.0257 16.7345 24.0231C16.7658 24.0205 16.7972 24.024 16.8271 24.0336C16.8414 24.0336 18.192 24.4576 19.2282 23.843C19.8166 23.4952 20.2001 22.8711 20.3716 21.9921C20.3775 21.9608 20.3896 21.931 20.4071 21.9044C20.4245 21.8778 20.4471 21.8549 20.4734 21.837C20.4997 21.819 20.5293 21.8065 20.5605 21.8C20.5916 21.7935 20.6238 21.7932 20.6551 21.7992C20.6864 21.8051 20.7162 21.8172 20.7428 21.8346C20.7694 21.8521 20.7923 21.8746 20.8103 21.901C20.8282 21.9273 20.8407 21.9569 20.8472 21.988C20.8537 22.0192 20.854 22.0514 20.848 22.0827C20.6479 23.1046 20.1858 23.8335 19.4736 24.2551C18.9855 24.5297 18.4326 24.6679 17.8728 24.6553Z" fill="white"/>
<path d="M26.0794 23.3882C26.0413 23.3883 26.0037 23.3793 25.9698 23.362C25.9419 23.3476 25.9172 23.3279 25.8969 23.304C25.8767 23.28 25.8613 23.2523 25.8518 23.2224C25.8423 23.1926 25.8388 23.1611 25.8414 23.1299C25.8441 23.0986 25.8529 23.0682 25.8674 23.0404C26.0391 22.7162 26.1136 22.3493 26.0819 21.9838C26.0502 21.6183 25.9137 21.2697 25.6887 20.9799C25.6477 20.9316 25.6275 20.8689 25.6326 20.8057C25.6378 20.7425 25.6678 20.6839 25.7161 20.6428C25.7644 20.6018 25.8271 20.5816 25.8903 20.5867C25.9535 20.5919 26.0121 20.6219 26.0532 20.6702C26.3395 21.0323 26.5145 21.4698 26.5567 21.9295C26.599 22.3892 26.5069 22.8513 26.2914 23.2595C26.2713 23.2984 26.2408 23.3309 26.2035 23.3536C26.1661 23.3763 26.1231 23.3883 26.0794 23.3882Z" fill="white"/>
<path d="M27.7658 23.7258C27.739 23.7255 27.7124 23.7206 27.6872 23.7115C27.6276 23.6909 27.5785 23.6475 27.5508 23.5908C27.5231 23.5341 27.5191 23.4687 27.5395 23.409C27.7221 22.8753 27.7966 22.3106 27.7585 21.7478C27.7205 21.185 27.5707 20.6355 27.318 20.1312C27.2937 20.0775 27.2902 20.0167 27.3082 19.9605C27.3262 19.9043 27.3644 19.8568 27.4154 19.8272C27.4663 19.7976 27.5265 19.7879 27.5842 19.8C27.6419 19.8122 27.693 19.8453 27.7277 19.893C28.0199 20.4554 28.1939 21.0716 28.239 21.7037C28.2841 22.3358 28.1992 22.9705 27.9897 23.5686C27.9731 23.6146 27.9427 23.6544 27.9026 23.6825C27.8625 23.7106 27.8148 23.7258 27.7658 23.7258Z" fill="white"/>
<path d="M29.4042 24.3598C29.3766 24.3598 29.3492 24.355 29.3232 24.3455C29.2938 24.3347 29.2667 24.3181 29.2437 24.2967C29.2207 24.2754 29.2021 24.2497 29.189 24.2211C29.176 24.1926 29.1687 24.1617 29.1676 24.1303C29.1665 24.0989 29.1716 24.0676 29.1827 24.0383C29.448 23.3028 29.5556 22.5198 29.4986 21.7401C29.4415 20.9603 29.2211 20.2013 28.8516 19.5123C28.8181 19.4586 28.8073 19.3938 28.8216 19.3322C28.8359 19.2705 28.8741 19.2171 28.9278 19.1836C28.9815 19.1501 29.0463 19.1393 29.1079 19.1536C29.1696 19.1679 29.223 19.2061 29.2565 19.2598C29.6712 20.0099 29.9191 20.8407 29.9832 21.6954C30.0473 22.5501 29.9262 23.4086 29.6281 24.2121C29.6099 24.2564 29.5789 24.2942 29.5389 24.3205C29.499 24.3468 29.452 24.3605 29.4042 24.3598Z" fill="white"/>
</svg>
