<svg width="16" height="20" viewBox="0 0 16 20" fill="none" xmlns="http://www.w3.org/2000/svg">
<mask id="mask0_1528_3760" style="mask-type:alpha" maskUnits="userSpaceOnUse" x="0" y="12" width="16" height="8">
<path fill-rule="evenodd" clip-rule="evenodd" d="M0.0185547 12.5781H15.7726V20.0004H0.0185547V12.5781Z" fill="white"/>
</mask>
<g mask="url(#mask0_1528_3760)">
<path fill-rule="evenodd" clip-rule="evenodd" d="M7.89698 14.0879C3.65909 14.0879 1.51081 14.8247 1.51081 16.2791C1.51081 17.7467 3.65909 18.4905 7.89698 18.4905C12.1339 18.4905 14.2812 17.7537 14.2812 16.2993C14.2812 14.8317 12.1339 14.0879 7.89698 14.0879ZM7.8966 20.0004C5.94822 20.0004 0.0185547 20.0004 0.0185547 16.2792C0.0185547 12.9616 4.51504 12.5781 7.8966 12.5781C9.84497 12.5781 15.7726 12.5781 15.7726 16.2993C15.7726 19.6169 11.2772 20.0004 7.8966 20.0004Z" fill="#828282"/>
</g>
<mask id="mask1_1528_3760" style="mask-type:alpha" maskUnits="userSpaceOnUse" x="2" y="0" width="12" height="11">
<path fill-rule="evenodd" clip-rule="evenodd" d="M2.61426 0H13.1767V10.6881H2.61426V0Z" fill="white"/>
</mask>
<g mask="url(#mask1_1528_3760)">
<path fill-rule="evenodd" clip-rule="evenodd" d="M7.89642 1.4375C5.76703 1.4375 4.03447 3.18989 4.03447 5.3449C4.02751 7.49286 5.74714 9.24424 7.86758 9.2523L7.89642 9.97097V9.2523C10.0248 9.2523 11.7564 7.4989 11.7564 5.3449C11.7564 3.18989 10.0248 1.4375 7.89642 1.4375ZM7.89647 10.6885H7.86465C4.9585 10.6794 2.60434 8.28083 2.61429 5.34172C2.61429 2.39758 4.98336 0 7.89647 0C10.8086 0 13.1767 2.39758 13.1767 5.34474C13.1767 8.2919 10.8086 10.6885 7.89647 10.6885Z" fill="#828282"/>
</g>
</svg>
