<svg width="8" height="9" viewBox="0 0 8 9" fill="none" xmlns="http://www.w3.org/2000/svg">
<path d="M4.0205 0.833496C4.50211 0.833496 4.964 1.02665 5.30455 1.37047C5.6451 1.71428 5.83641 2.1806 5.83642 2.66683C5.83641 3.15306 5.6451 3.61938 5.30455 3.96319C4.964 4.30701 4.50211 4.50016 4.0205 4.50016C3.53889 4.50016 3.07701 4.30701 2.73646 3.96319C2.39591 3.61938 2.20459 3.15306 2.20459 2.66683C2.20459 2.1806 2.39591 1.71428 2.73646 1.37047C3.07701 1.02665 3.53889 0.833496 4.0205 0.833496ZM4.0205 5.41683C6.02709 5.41683 7.65233 6.23725 7.65233 7.25016V8.16683H0.388672V7.25016C0.388672 6.23725 2.01392 5.41683 4.0205 5.41683Z" fill="#99E7FF"/>
</svg>
